<?xml version="1.0" encoding="utf-8"?>
<!-- Generator: Adobe Illustrator 16.0.0, SVG Export Plug-In . SVG Version: 6.00 Build 0)  -->
<!DOCTYPE svg PUBLIC "-//W3C//DTD SVG 1.1//EN" "http://www.w3.org/Graphics/SVG/1.1/DTD/svg11.dtd">
<svg version="1.1" id="Capa_1" xmlns="http://www.w3.org/2000/svg" xmlns:xlink="http://www.w3.org/1999/xlink" x="0px" y="0px"
	 width="250px" height="169.098px" viewBox="0 0 250 169.098" enable-background="new 0 0 250 169.098" xml:space="preserve">
<g>
	<path fill="#487093" d="M175.535,125.244l1.494,2.604C201.793,84.803,225.591,43.436,250,1H104.195l71.34,124.248V125.244z"/>
	<polygon fill="#487093" points="177.023,127.86 174.717,132.084 193.058,164 156.334,164.057 174.717,132.084 101.827,5.108 
		80.525,41.805 150.688,164 9.622,164 80.525,41.805 78.932,39.171 78.912,39.204 78.108,37.809 78.105,37.803 2.5,168.102 
		150.669,168.102 157.772,168.102 200.143,168.102 177.029,127.849 	"/>
	<polygon fill="#487093" points="175.535,125.248 177.029,127.849 177.023,127.86 177.029,127.849 175.535,125.244 	"/>
	<polygon fill="#487093" points="56.938,1 78.105,37.803 99.46,1 	"/>
	<polygon fill="#487093" points="78.912,39.204 78.932,39.171 78.108,37.809 	"/>
	<polygon fill="#487093" points="78.105,37.803 78.105,37.803 78.105,37.803 	"/>
	<polygon fill="#487093" points="78.105,37.803 78.105,37.803 78.108,37.809 	"/>
	<polygon fill="#487093" points="101.833,1 101.832,1 101.833,1.002 	"/>
	<g>
		<line fill="none" x1="121.632" y1="109.28" x2="121.632" y2="109.28"/>
	</g>
</g>
</svg>
