<?xml version="1.0" encoding="utf-8"?>
<!-- Generator: Adobe Illustrator 16.0.0, SVG Export Plug-In . SVG Version: 6.00 Build 0)  -->
<!DOCTYPE svg PUBLIC "-//W3C//DTD SVG 1.1//EN" "http://www.w3.org/Graphics/SVG/1.1/DTD/svg11.dtd">
<svg version="1.1" id="Capa_1" xmlns="http://www.w3.org/2000/svg" xmlns:xlink="http://www.w3.org/1999/xlink" x="0px" y="0px"
	 width="113.766px" height="83.186px" viewBox="0 0 113.766 83.186" enable-background="new 0 0 113.766 83.186"
	 xml:space="preserve">
<g>
	<g>
		<path fill="#86C0C4" d="M47.998,4.668h65.769c-10.992,19.109-21.7,37.725-32.863,57.13C69.764,42.46,59.008,23.784,47.998,4.668"
			/>
		<path fill="#86C0C4" d="M47.998,5.893c10.981,19.07,21.67,37.631,32.404,56.273c-2.851,4.881-5.897,10.432-9.013,15.765
			c-3.148-5.309-32.494-56.358-32.494-56.358S45.368,10.333,47.998,5.893"/>
		<g>
			<path fill="#86C0C4" d="M72.519,78.663H4.215l34.334-59.167L72.519,78.663z M6.757,77.2h63.233L38.54,22.424L6.757,77.2z"/>
		</g>
		<g>
			<path fill="#86C0C4" d="M91.328,78.663H69.984l10.729-18.488L91.328,78.663z M72.526,77.2h16.273l-8.095-14.096L72.526,77.2z"/>
		</g>
		<polygon fill="#86C0C4" points="29.19,4.668 38.124,20.228 47.415,4.668 		"/>
	</g>
</g>
</svg>
