<?xml version="1.0" encoding="utf-8"?>
<!-- Generator: Adobe Illustrator 16.0.0, SVG Export Plug-In . SVG Version: 6.00 Build 0)  -->
<!DOCTYPE svg PUBLIC "-//W3C//DTD SVG 1.1//EN" "http://www.w3.org/Graphics/SVG/1.1/DTD/svg11.dtd">
<svg version="1.1" id="Capa_1" xmlns="http://www.w3.org/2000/svg" xmlns:xlink="http://www.w3.org/1999/xlink" x="0px" y="0px"
	 width="20px" height="14px" viewBox="0 0 20 14" enable-background="new 0 0 20 14" xml:space="preserve">
<g>
	<path fill="#476C8D" d="M13.982,10.214l0.121,0.211C16.105,6.944,18.027,3.602,20,0.173H8.218L13.982,10.214L13.982,10.214z"/>
	<polygon fill="#476C8D" points="14.102,10.425 13.917,10.765 15.397,13.344 12.431,13.349 13.917,10.765 8.026,0.504 6.305,3.47 
		11.975,13.344 0.576,13.344 6.305,3.47 6.176,3.258 6.175,3.26 6.11,3.146 6.109,3.146 0,13.675 11.973,13.675 12.548,13.675 
		15.973,13.675 14.104,10.425 	"/>
	<polygon fill="#476C8D" points="13.982,10.214 14.104,10.425 14.102,10.425 14.104,10.425 13.982,10.214 	"/>
	<polygon fill="#476C8D" points="4.399,0.173 6.109,3.146 7.835,0.173 	"/>
	<polygon fill="#476C8D" points="6.175,3.26 6.176,3.258 6.11,3.146 	"/>
	<path fill="#476C8D" d="M6.109,3.146L6.109,3.146L6.109,3.146z"/>
	<polygon fill="#476C8D" points="6.109,3.146 6.109,3.146 6.11,3.146 	"/>
	<polygon fill="#476C8D" points="8.026,0.173 8.026,0.173 8.026,0.173 	"/>
	<g>
		<line fill="none" x1="9.627" y1="8.924" x2="9.627" y2="8.924"/>
	</g>
</g>
</svg>
